…
    ## Joining, by = "cluster_sel"

Table of candidates, with clusters:

``` r
candidates4 %>% 
  select(cluster_sel, candidate, candidate_district, 
         party, votes_pct, d_elected) %>% 
  mutate(votes_pct = round(votes_pct, 2)) %>% 
  arrange(cluster_sel, candidate_district, -d_elected, -votes_pct)
```

    ## # A tibble: 78 x 6
    ##    cluster_sel candidate           candidate_district party  votes_pct d_elected
    ##    <chr>       <chr>                            <dbl> <chr>      <dbl>     <dbl>
    ##  1 C1 (n = 29) SEBASTIAN TORREALBA                 10 RN          2.34         1
    ##  2 C1 (n = 29) CLAUDIO ARRIAGADA                   10 PDC         4.13         0
    ##  3 C1 (n = 29) DAUNO TOTORO                        10 IND         1.69         0
    ##  4 C1 (n = 29) PEDRO GARCIA                        10 PDC         0.7          0
    ##  5 C1 (n = 29) VERONICA PINILLA                    10 PPD         0.54         0
    ##  6 C1 (n = 29) CAROLA SOLIS                        10 PRSD        0.48         0
    ##  7 C1 (n = 29) ANDREA DUARTE                       10 PRO         0.46         0
    ##  8 C1 (n = 29) JORGE ARROYO                        10 PRO         0.21         0
    ##  9 C1 (n = 29) RODOLFO CHELME                      10 PRO         0.15         0
    ## 10 C1 (n = 29) FRANCISCO UNDURRAGA                 11 EVOPO…     15.6          1
    ## # … with 68 more rows
…
